%YAML 1.1
%TAG !u! tag:unity3d.com,2011:
--- !u!1001 &2025976011726058241
PrefabInstance:
  m_ObjectHideFlags: 0
  serializedVersion: 2
  m_Modification:
    m_TransformParent: {fileID: 0}
    m_Modifications:
    - target: {fileID: 622092082289315084, guid: 1632735d76cdac1469bfae96de2c5685, type: 3}
      propertyPath: m_Color.r
      value: 0
      objectReference: {fileID: 0}
    - target: {fileID: 622092082289315084, guid: 1632735d76cdac1469bfae96de2c5685, type: 3}
      propertyPath: m_Color.b
      value: 0.8666667
      objectReference: {fileID: 0}
    - target: {fileID: 622092082289315084, guid: 1632735d76cdac1469bfae96de2c5685, type: 3}
      propertyPath: m_Color.g
      value: 0.3488783
      objectReference: {fileID: 0}
    - target: {fileID: 622092082411943316, guid: 1632735d76cdac1469bfae96de2c5685, type: 3}
      propertyPath: m_Name
      value: Jewel Blue
      objectReference: {fileID: 0}
    - target: {fileID: 622092082411943318, guid: 1632735d76cdac1469bfae96de2c5685, type: 3}
      propertyPath: m_LocalPosition.x
      value: 0
      objectReference: {fileID: 0}
    - target: {fileID: 622092082411943318, guid: 1632735d76cdac1469bfae96de2c5685, type: 3}
      propertyPath: m_LocalPosition.y
      value: 0
      objectReference: {fileID: 0}
    - target: {fileID: 622092082411943318, guid: 1632735d76cdac1469bfae96de2c5685, type: 3}
      propertyPath: m_LocalPosition.z
      value: 0
      objectReference: {fileID: 0}
    - target: {fileID: 622092082411943318, guid: 1632735d76cdac1469bfae96de2c5685, type: 3}
      propertyPath: m_LocalRotation.x
      value: 0
      objectReference: {fileID: 0}
    - target: {fileID: 622092082411943318, guid: 1632735d76cdac1469bfae96de2c5685, type: 3}
      propertyPath: m_LocalRotation.y
      value: 0
      objectReference: {fileID: 0}
    - target: {fileID: 622092082411943318, guid: 1632735d76cdac1469bfae96de2c5685, type: 3}
      propertyPath: m_LocalRotation.z
      value: 0
      objectReference: {fileID: 0}
    - target: {fileID: 622092082411943318, guid: 1632735d76cdac1469bfae96de2c5685, type: 3}
      propertyPath: m_LocalRotation.w
      value: 1
      objectReference: {fileID: 0}
    - target: {fileID: 622092082411943318, guid: 1632735d76cdac1469bfae96de2c5685, type: 3}
      propertyPath: m_RootOrder
      value: 0
      objectReference: {fileID: 0}
    - target: {fileID: 622092082411943318, guid: 1632735d76cdac1469bfae96de2c5685, type: 3}
      propertyPath: m_LocalEulerAnglesHint.x
      value: 0
      objectReference: {fileID: 0}
    - target: {fileID: 622092082411943318, guid: 1632735d76cdac1469bfae96de2c5685, type: 3}
      propertyPath: m_LocalEulerAnglesHint.y
      value: 0
      objectReference: {fileID: 0}
    - target: {fileID: 622092082411943318, guid: 1632735d76cdac1469bfae96de2c5685, type: 3}
      propertyPath: m_LocalEulerAnglesHint.z
      value: 0
      objectReference: {fileID: 0}
    - target: {fileID: 622092082411943319, guid: 1632735d76cdac1469bfae96de2c5685, type: 3}
      propertyPath: kind
      value: 5
      objectReference: {fileID: 0}
    m_RemovedComponents: []
  m_SourcePrefab: {fileID: 100100000, guid: 1632735d76cdac1469bfae96de2c5685, type: 3}
